Project 1: Exploratory Data Analysis
…
pamfinish <- corona_kr %>% mutate(cluster = as.factor(pam2$clustering))

confmat <- pamfinish %>% group_by(coronavirus, flu) %>% count(cluster) %>% 
    arrange(desc(n)) %>% pivot_wider(names_from = "cluster", 
    values_from = "n", values_fill = list(n = 0))

confmat

## # A tibble: 52 x 4
## # Groups:   coronavirus, flu [52]
##    coronavirus    flu   `1`   `2`
##          <dbl>  <dbl> <int> <int>
##  1        9.80 0.0899     1     0
##  2       10.3  0.100      1     0
##  3       11.0  0.120      1     0
##  4       15.0  0.120      1     0
##  5       15.1  0.140      1     0
##  6       15.9  0.153      1     0
##  7       16.9  0.118      1     0
##  8       18.1  0.171      1     0
##  9       20.7  0.703      1     0
## 10       24.0  0.0894     0     1
## # … with 42 more rows
…
